{
  "source": {
    "include": ["./README.md", "./index.js", "./src"]
  },
  "opts": {
    "destination": "docs",
    "template": "jsdoc-template"
  },
  "templates": {
    "referenceTitle": "SemanticEpubParser",
    "resources": {
      "GitLab": "https://gitlab.com/librarystack/semantic-epub-parser"
    }
  }
}
