{
  "name": "epub-indexer",
  "bin": "dist/cli.js",
  "pkg": {
    "input": "dist/cli.js",
    "output": "dist/epub-indexer",
    "target": "node14",
    "options": ["no-warnings", "max_old_space_size=4096"]
  }
}
